%YAML 1.1
%TAG !u! tag:unity3d.com,2011:
--- !u!1045 &1
EditorBuildSettings:
  m_ObjectHideFlags: 0
  serializedVersion: 2
  m_Scenes: []
  m_configObjects:
    Unity.XR.OpenVR.Settings: {fileID: 11400000, guid: a06d525259d419f4598e5026038abd1e, type: 2}
    com.unity.xr.management.loader_settings: {fileID: 11400000, guid: 845ac969e152e1e40855df8f6cca5768, type: 2}
